lab5/lab5AND_OR/simulation/qsim/lab5AND_OR.msim.vcd
$comment
	File created using the following command:
		vcd file lab5AND_OR.msim.vcd -direction
$end
$date
	Fri Oct  2 16:57:19 2020
$end
$version
	ModelSim Version 10.3d
$end
$timescale
	1ps
$end

$scope module lab5AND_OR_vlg_vec_tst $end
$var reg 1 ! S0 $end
$var reg 1 " S1 $end
$var reg 1 # S2 $end
$var wire 1 $ A $end
$var wire 1 % P $end
$var wire 1 & sampler $end

$scope module i1 $end
$var wire 1 ' gnd $end
$var wire 1 ( vcc $end
$var wire 1 ) unknown $end
$var tri1 1 * devclrn $end
$var tri1 1 + devpor $end
$var tri1 1 , devoe $end
$var wire 1 - ~QUARTUS_CREATED_GND~I_combout $end
$var wire 1 . S1~input_o $end
$var wire 1 / S0~input_o $end
$var wire 1 0 S2~input_o $end
$var wire 1 1 inst5~0_combout $end
$var wire 1 2 inst4~0_combout $end
$upscope $end
$upscope $end
$enddefinitions $end
#0
$dumpvars
0!
0"
0#
1$
0%
x&
0'
1(
x)
1*
1+
1,
0-
0.
0/
00
01
02
$end
#10000
1!
1/
0&
12
0$
#20000
1"
0!
1.
0/
1&
02
11
1%
1$
#30000
1!
1/
0&
12
0$
#40000
1#
0"
0!
10
0.
0/
1&
02
01
0%
1$
#50000
1!
1/
0&
11
1%
#60000
1"
0!
1.
0/
1&
12
01
0%
0$
#70000
1!
1/
0&
11
1%
